[
  {
    "active": true,
    "displayName": "Ian Bold",
    "email": "ian.bold@coyo4.com",
    "firstname": "Ian",
    "lastname": "Bold",
    "loginName": "ian.bold@coyo4.com",
    "slug": "ian-bold"
  },
  {
    "active": true,
    "displayName": "Nancy Fork",
    "email": "nancy.fork@coyo4.com",
    "firstname": "Nancy",
    "lastname": "Fork",
    "loginName": "nancy.fork@coyo4.com",
    "slug": "nancy-fork"
  },
  {
    "active": true,
    "displayName": "Nicholas Freeman",
    "email": "nicholas.freeman@coyo4.com",
    "firstname": "Nicholas",
    "lastname": "Freeman",
    "loginName": "nicholas.freeman@coyo4.com",
    "slug": "nicholas-freeman"
  },
  {
    "active": true,
    "displayName": "Jane Harvey",
    "email": "jane.harvey@digitalcompany.io",
    "firstname": "Jane",
    "lastname": "Harvey",
    "loginName": "jane.harvey@digitalcompany.io",
    "slug": "jane-harvey"
  },
  {
    "active": true,
    "displayName": "Robert Lang",
    "email": "robert.lang@coyo4.com",
    "firstname": "Robert",
    "lastname": "Lang",
    "loginName": "robert.lang@coyo4.com",
    "slug": "robert-lang"
  },
  {
    "active": true,
    "displayName": "Susanne Miller",
    "email": "susanne.miller@coyo4.com",
    "firstname": "Susanne",
    "lastname": "Miller",
    "loginName": "susanne.miller@coyo4.com",
    "slug": "susanne-miller"
  },
  {
    "active": true,
    "displayName": "Michael Thomson",
    "email": "michael.thomson@coyo4.com",
    "firstname": "Michael",
    "lastname": "Thomson",
    "loginName": "michael.thomson@coyo4.com",
    "slug": "michael-thomson"
  }
]
