{
    "baseUrl": "http://localhost:3000",
    "env": {
        "backendUrl": "http://localhost:3000",
        "username": "rl",
        "password": "demo"
    },
    "defaultCommandTimeout": 30000,
    "projectId": "mfd8ek",
    "viewportWidth": 1440,
    "viewportHeight": 900,
    "numTestsKeptInMemory": 10,
    "supportFile": "cypress/support/index.ts",
    "screenshotsFolder": "reports/screenshots",
    "videosFolder": "reports/videos"
}
